Lab folder/Ripple_ Carry_Adder_assignment/tb_add.vcd
$date
	Thu Aug 29 11:57:05 2019
$end
$version
	Icarus Verilog
$end
$timescale
	100ps
$end
$scope module tb $end
$var wire 1 ! cout $end
$var wire 4 " o [3:0] $end
$var reg 1 # cin $end
$var reg 1 $ clk $end
$var integer 32 % i [31:0] $end
$var reg 4 & i0 [3:0] $end
$var reg 4 ' i1 [3:0] $end
$var reg 1 ( reset $end
$scope module u0 $end
$var wire 4 ) a [3:0] $end
$var wire 4 * b [3:0] $end
$var wire 3 + c [2:0] $end
$var wire 1 , cin $end
$var wire 1 ! cout $end
$var wire 4 - sum [3:0] $end
$scope module fa1 $end
$var wire 1 . a $end
$var wire 1 / b $end
$var wire 1 , cin $end
$var wire 1 0 cout $end
$var wire 1 1 sum $end
$var wire 1 2 x $end
$var wire 1 3 y $end
$var wire 1 4 z $end
$scope module fxor $end
$var wire 1 . i0 $end
$var wire 1 / i1 $end
$var wire 1 , i2 $end
$var wire 1 1 o $end
$var wire 1 5 t $end
$scope module xor2_0 $end
$var wire 1 . i0 $end
$var wire 1 / i1 $end
$var wire 1 5 o $end
$upscope $end
$scope module xor2_1 $end
$var wire 1 , i0 $end
$var wire 1 5 i1 $end
$var wire 1 1 o $end
$upscope $end
$upscope $end
$scope module fand1 $end
$var wire 1 . i0 $end
$var wire 1 / i1 $end
$var wire 1 2 o $end
$upscope $end
$scope module fand2 $end
$var wire 1 / i0 $end
$var wire 1 , i1 $end
$var wire 1 3 o $end
$upscope $end
$scope module fand3 $end
$var wire 1 . i0 $end
$var wire 1 , i1 $end
$var wire 1 4 o $end
$upscope $end
$scope module for3 $end
$var wire 1 2 i0 $end
$var wire 1 3 i1 $end
$var wire 1 4 i2 $end
$var wire 1 0 o $end
$var wire 1 6 t $end
$scope module or2_0 $end
$var wire 1 2 i0 $end
$var wire 1 3 i1 $end
$var wire 1 6 o $end
$upscope $end
$scope module or2_1 $end
$var wire 1 4 i0 $end
$var wire 1 6 i1 $end
$var wire 1 0 o $end
$upscope $end
$upscope $end
$upscope $end
$scope module fa2 $end
$var wire 1 7 a $end
$var wire 1 8 b $end
$var wire 1 9 cin $end
$var wire 1 : cout $end
$var wire 1 ; sum $end
$var wire 1 < x $end
$var wire 1 = y $end
$var wire 1 > z $end
$scope module fxor $end
$var wire 1 7 i0 $end
$var wire 1 8 i1 $end
$var wire 1 9 i2 $end
$var wire 1 ; o $end
$var wire 1 ? t $end
$scope module xor2_0 $end
$var wire 1 7 i0 $end
$var wire 1 8 i1 $end
$var wire 1 ? o $end
$upscope $end
$scope module xor2_1 $end
$var wire 1 9 i0 $end
$var wire 1 ? i1 $end
$var wire 1 ; o $end
$upscope $end
$upscope $end
$scope module fand1 $end
$var wire 1 7 i0 $end
$var wire 1 8 i1 $end
$var wire 1 < o $end
$upscope $end
$scope module fand2 $end
$var wire 1 8 i0 $end
$var wire 1 9 i1 $end
$var wire 1 = o $end
$upscope $end
$scope module fand3 $end
$var wire 1 7 i0 $end
$var wire 1 9 i1 $end
$var wire 1 > o $end
$upscope $end
$scope module for3 $end
$var wire 1 < i0 $end
$var wire 1 = i1 $end
$var wire 1 > i2 $end
$var wire 1 : o $end
$var wire 1 @ t $end
$scope module or2_0 $end
$var wire 1 < i0 $end
$var wire 1 = i1 $end
$var wire 1 @ o $end
$upscope $end
$scope module or2_1 $end
$var wire 1 > i0 $end
$var wire 1 @ i1 $end
$var wire 1 : o $end
$upscope $end
$upscope $end
$upscope $end
$scope module fa3 $end
$var wire 1 A a $end
$var wire 1 B b $end
$var wire 1 C cin $end
$var wire 1 D cout $end
$var wire 1 E sum $end
$var wire 1 F x $end
$var wire 1 G y $end
$var wire 1 H z $end
$scope module fxor $end
$var wire 1 A i0 $end
$var wire 1 B i1 $end
$var wire 1 C i2 $end
$var wire 1 E o $end
$var wire 1 I t $end
$scope module xor2_0 $end
$var wire 1 A i0 $end
$var wire 1 B i1 $end
$var wire 1 I o $end
$upscope $end
$scope module xor2_1 $end
$var wire 1 C i0 $end
$var wire 1 I i1 $end
$var wire 1 E o $end
$upscope $end
$upscope $end
$scope module fand1 $end
$var wire 1 A i0 $end
$var wire 1 B i1 $end
$var wire 1 F o $end
$upscope $end
$scope module fand2 $end
$var wire 1 B i0 $end
$var wire 1 C i1 $end
$var wire 1 G o $end
$upscope $end
$scope module fand3 $end
$var wire 1 A i0 $end
$var wire 1 C i1 $end
$var wire 1 H o $end
$upscope $end
$scope module for3 $end
$var wire 1 F i0 $end
$var wire 1 G i1 $end
$var wire 1 H i2 $end
$var wire 1 D o $end
$var wire 1 J t $end
$scope module or2_0 $end
$var wire 1 F i0 $end
$var wire 1 G i1 $end
$var wire 1 J o $end
$upscope $end
$scope module or2_1 $end
$var wire 1 H i0 $end
$var wire 1 J i1 $end
$var wire 1 D o $end
$upscope $end
$upscope $end
$upscope $end
$scope module fa4 $end
$var wire 1 K a $end
$var wire 1 L b $end
$var wire 1 M cin $end
$var wire 1 ! cout $end
$var wire 1 N sum $end
$var wire 1 O x $end
$var wire 1 P y $end
$var wire 1 Q z $end
$scope module fxor $end
$var wire 1 K i0 $end
$var wire 1 L i1 $end
$var wire 1 M i2 $end
$var wire 1 N o $end
$var wire 1 R t $end
$scope module xor2_0 $end
$var wire 1 K i0 $end
$var wire 1 L i1 $end
$var wire 1 R o $end
$upscope $end
$scope module xor2_1 $end
$var wire 1 M i0 $end
$var wire 1 R i1 $end
$var wire 1 N o $end
$upscope $end
$upscope $end
$scope module fand1 $end
$var wire 1 K i0 $end
$var wire 1 L i1 $end
$var wire 1 O o $end
$upscope $end
$scope module fand2 $end
$var wire 1 L i0 $end
$var wire 1 M i1 $end
$var wire 1 P o $end
$upscope $end
$scope module fand3 $end
$var wire 1 K i0 $end
$var wire 1 M i1 $end
$var wire 1 Q o $end
$upscope $end
$scope module for3 $end
$var wire 1 O i0 $end
$var wire 1 P i1 $end
$var wire 1 Q i2 $end
$var wire 1 ! o $end
$var wire 1 S t $end
$scope module or2_0 $end
$var wire 1 O i0 $end
$var wire 1 P i1 $end
$var wire 1 S o $end
$upscope $end
$scope module or2_1 $end
$var wire 1 Q i0 $end
$var wire 1 S i1 $end
$var wire 1 ! o $end
$upscope $end
$upscope $end
$upscope $end
$upscope $end
$upscope $end
$enddefinitions $end
#0
$dumpvars
0S
0R
0Q
0P
0O
0N
0M
0L
0K
0J
0I
0H
0G
0F
0E
0D
0C
0B
0A
0@
0?
0>
0=
0<
0;
0:
09
08
07
06
05
04
03
02
01
00
0/
0.
b0 -
0,
b0 +
b0 *
b0 )
1(
b0 '
b0 &
bx %
0$
0#
b0 "
0!
$end
#50
1$
#60
b0 %
#100
0$
#125
0(
#150
1$
#160
11
b1 "
b1 -
15
1/
b1 %
b1 '
b1 *
#200
0$
#250
1$
#260
1;
19
10
b1 +
01
b10 "
b10 -
16
05
12
1.
b10 %
b1 &
b1 )
#300
0$
#350
1$
#360
1N
1M
1D
1H
1C
0;
1:
b111 +
0E
b1000 "
b1000 -
1?
1>
1I
17
1A
b11 %
b111 &
b111 )
#400
0$
#450
1$
#460
0N
0M
0D
1E
0C
0:
1;
09
00
b0 +
11
b111 "
b111 -
06
0@
0J
15
02
0>
0H
0=
0G
0.
07
0A
18
1B
b100 %
b0 &
b0 )
b111 '
b111 *
#500
0$
#550
1$
#560
1G
1H
1N
1C
1M
1=
1>
1:
1D
19
1;
1@
1E
1J
10
b111 +
0?
1<
0I
1F
16
17
1A
01
b1110 "
b1110 -
13
b101 %
b110 &
b110 )
1#
1,
#600
0$
#650
1$
#660
0M
0!
11
0D
b11 +
0;
0@
0J
1N
b1101 "
b1101 -
0S
05
12
14
0H
1?
0<
0=
0F
0G
1R
0P
1.
0A
08
0B
1L
b110 %
b11 &
b11 )
b1001 '
b1001 *
#700
0$
#750
1$
#760
1!
0N
1Q
1M
0E
b1 "
b1 -
1D
b111 +
1I
1H
1A
1K
0L
b111 %
b1111 &
b1111 )
b1 '
b1 *
#800
0$
#850
1$
#860
1N
0!
1;
1@
1E
1J
0R
0Q
0?
1<
1=
0I
1F
1G
0K
18
1B
01
b1110 "
b1110 -
03
04
b1000 %
b111 &
b111 )
b111 '
b111 *
0#
0,
